<svg xmlns="http://www.w3.org/2000/svg" viewBox="241 40 180 46.105">
  <defs>
    <style>
      .cls-1 {
        fill: #232b36;
      }

      .cls-2 {
        fill: #2195c8;
      }

      .cls-3 {
        fill: #da5582;
      }

      .cls-4 {
        fill: #1fa463;
      }
    </style>
  </defs>
  <g id="Group_4" data-name="Group 4" transform="translate(240.985 39.975)">
    <g id="AMBEE_1_" transform="translate(58.309 4.265)">
      <path id="Path_4" data-name="Path 4" class="cls-1" d="M478.172,142.8h4.508v19.352h-4.508v-2.015a7.419,7.419,0,0,1-5.792,2.619c-5.981,0-9.38-4.973-9.38-10.3,0-6.3,4.319-10.161,9.431-10.161a7.079,7.079,0,0,1,5.754,2.757V142.8ZM467.6,152.549c0,3.362,2.115,6.157,5.376,6.157,2.846,0,5.477-2.065,5.477-6.119,0-4.231-2.619-6.258-5.477-6.258C469.711,146.342,467.6,149.1,467.6,152.549Z" transform="translate(-463 -128.626)"/>
      <path id="Path_5" data-name="Path 5" class="cls-1" d="M664.6,142.716h4.508V144.5a5.985,5.985,0,0,1,4.785-2.3,5.7,5.7,0,0,1,5.011,2.846,6.837,6.837,0,0,1,5.754-2.846,6.2,6.2,0,0,1,5.515,3.034,9.56,9.56,0,0,1,1.007,4.873v11.962h-4.5V151.4a8.853,8.853,0,0,0-.415-3.45,2.564,2.564,0,0,0-2.581-1.7,3.325,3.325,0,0,0-2.669,1.423c-.781,1.108-.869,2.757-.869,4.419v9.972h-4.508V151.4a8.853,8.853,0,0,0-.415-3.45,2.564,2.564,0,0,0-2.581-1.7,3.325,3.325,0,0,0-2.669,1.423c-.781,1.108-.869,2.757-.869,4.419v9.972H664.6Z" transform="translate(-639.216 -128.539)"/>
      <path id="Path_6" data-name="Path 6" class="cls-1" d="M925.508,50.131a7.05,7.05,0,0,1,5.754-2.757c5.1,0,9.431,3.865,9.431,10.161,0,5.339-3.4,10.3-9.38,10.3a7.446,7.446,0,0,1-5.792-2.619V67.23H921V33.7h4.508Zm-.277,7.542c0,4.042,2.619,6.119,5.477,6.119,3.261,0,5.376-2.808,5.376-6.157,0-3.45-2.115-6.207-5.376-6.207C927.862,51.416,925.231,53.443,925.231,57.673Z" transform="translate(-863.333 -33.7)"/>
      <path id="Path_7" data-name="Path 7" class="cls-1" d="M1125.045,157.749a10.212,10.212,0,0,1-3.261,3.538,10.7,10.7,0,0,1-5.7,1.473,8.587,8.587,0,0,1-6.535-2.48,10.392,10.392,0,0,1-2.846-7.4,11.34,11.34,0,0,1,3.085-7.958,8.817,8.817,0,0,1,6.484-2.619,8.318,8.318,0,0,1,6.207,2.531c2.48,2.581,2.72,6.157,2.72,8.184v.554h-13.888a6.369,6.369,0,0,0,1.649,3.9,4.606,4.606,0,0,0,3.45,1.247,4.733,4.733,0,0,0,3.085-.97,6.829,6.829,0,0,0,1.788-2.115Zm-4.47-7.869a4.69,4.69,0,0,0-1.385-2.619,4.684,4.684,0,0,0-6.207.139,5.173,5.173,0,0,0-1.385,2.48Z" transform="translate(-1025.651 -128.626)"/>
      <path id="Path_8" data-name="Path 8" class="cls-1" d="M1301.045,157.749a10.209,10.209,0,0,1-3.261,3.538,10.7,10.7,0,0,1-5.7,1.473,8.587,8.587,0,0,1-6.535-2.48,10.392,10.392,0,0,1-2.845-7.4,11.341,11.341,0,0,1,3.085-7.958,8.817,8.817,0,0,1,6.484-2.619,8.319,8.319,0,0,1,6.208,2.531c2.48,2.581,2.72,6.157,2.72,8.184v.554h-13.888a6.371,6.371,0,0,0,1.649,3.9,4.606,4.606,0,0,0,3.45,1.247,4.733,4.733,0,0,0,3.085-.97,6.827,6.827,0,0,0,1.788-2.115Zm-4.457-7.869a4.692,4.692,0,0,0-1.385-2.619,4.684,4.684,0,0,0-6.207.139,5.172,5.172,0,0,0-1.385,2.48Z" transform="translate(-1179.491 -128.626)"/>
    </g>
    <g id="Group_3" data-name="Group 3" transform="translate(0.015 0.025)">
      <path id="Path_9" data-name="Path 9" class="cls-2" d="M69.362,7.262l-4.042-7a.484.484,0,0,0-.831,0L43.941,35.869a.479.479,0,0,0,.416.718h8.083a.471.471,0,0,0,.416-.239l11.6-20.083h0L69.374,7.74A.5.5,0,0,0,69.362,7.262Z" transform="translate(-38.352 -0.025)"/>
      <path id="Path_10" data-name="Path 10" class="cls-3" d="M222.883,76.1l-4.042,6.988a.466.466,0,0,0,0,.478L230.9,104.451h0l4.457,7.718a.471.471,0,0,0,.416.239h8.083a.479.479,0,0,0,.415-.718L223.714,76.1A.474.474,0,0,0,222.883,76.1Z" transform="translate(-191.231 -66.303)"/>
      <path id="Path_11" data-name="Path 11" class="cls-4" d="M37.975,303.239a.481.481,0,0,0-.4-.227H13.46V303H4.545a.481.481,0,0,0-.4.227L.076,310.265a.463.463,0,0,0,.4.693h41.16a.466.466,0,0,0,.4-.693Z" transform="translate(-0.015 -264.852)"/>
    </g>
  </g>
</svg>
